532
628
631
634
681
683
684
847
848
872
917
978
1095
1096
1115
1144
1244
1245
1246
1307
1308
1350
1365
1366
1545
1546
1547
1567
1588
1589
1590
1615
1657
1658
1659
1660
1924
1933
1956
1968
1987
2010
2175
2347
2461
2515
2516
2532
2534
2536
2537
2538
2539
2540
2541
2542
2543
2546
2547
2548
2557
2560
2567
2666
2767
2856
2866
3164
3170
3175
3214
3217
3230
3232
3233
3234
3259
3260
3261
3262
3660
3661
3662
3663
3664
3715
3716
3810
3965
3970
4417
4419
4420
4426
4428
4437
4438
4509
4525
4527
5935
5971
5992
6207
6214
6573
6574
6575
6576
6660
6706
6906
6912
6916
6919
6920
6922
6964